{
  "images" : [
    {
      "idiom" : "universal",
      "filename" : "guinea.pdf"
    }
  ],
  "info" : {
    "version" : 1,
    "author" : "xcode"
  },
  "properties" : {
    "preserves-vector-representation" : true
  }
}